index.utf8
…
<img src="index_files/figure-html/unnamed-chunk-27-1.png" style="display: block; margin: auto;" />
---
class:

# Visualizar é comunicar

## O problema...

dado bruto

```
## # A tibble: 10,692 x 13
##    city   area rooms bathroom parking_spaces floor animal furniture condo  rent
##    <chr> <dbl> <dbl>    <dbl>          <dbl> <dbl> <chr>  <chr>     <dbl> <dbl>
##  1 São …    70     2        1              1     7 acept  furnished  2065  3300
##  2 São …   320     4        4              0    20 acept  not furn…  1200  4960
##  3 Port…    80     1        1              1     6 acept  not furn…  1000  2800
##  4 Port…    51     2        1              0     2 acept  not furn…   270  1112
##  5 São …    25     1        1              0     1 not a… not furn…     0   800
##  6 São …   376     3        3              7    NA acept  not furn…     0  8000
##  7 Rio …    72     2        1              0     7 acept  not furn…   740  1900
##  8 São …   213     4        4              4     4 acept  not furn…  2254  3223
##  9 São …   152     2        2              1     3 acept  furnished  1000 15000
## 10 Rio …    35     1        1              0     2 acept  furnished   590  2300
## # … with 10,682 more rows, and 3 more variables: tax <dbl>,
## #   fire_insurance <dbl>, total <dbl>
```
…
